{
  "project_info": {
    "project_number": "633861933333",
    "firebase_url": "https://trackfood-9d16e.firebaseio.com",
    "project_id": "trackfood-9d16e",
    "storage_bucket": "trackfood-9d16e.appspot.com"
  },
  "client": [
    {
      "client_info": {
        "mobilesdk_app_id": "1:633861933333:android:577e9114a5e6ac5eb9811c",
        "android_client_info": {
          "package_name": "com.dipa.trackfood"
        }
      },
      "oauth_client": [
        {
          "client_id": "633861933333-886i2isgsdb8j7mf0h8vc3op9ngo2s7p.apps.googleusercontent.com",
          "client_type": 3
        }
      ],
      "api_key": [
        {
          "current_key": "AIzaSyDTg3_cAIbskfOGhs0q8_drNbZGY_8Eibs"
        }
      ],
      "services": {
        "appinvite_service": {
          "other_platform_oauth_client": [
            {
              "client_id": "633861933333-886i2isgsdb8j7mf0h8vc3op9ngo2s7p.apps.googleusercontent.com",
              "client_type": 3
            }
          ]
        }
      }
    }
  ],
  "configuration_version": "1"
}